作者he00344146x (he00344146x)站內StupidClown標題[無言] 老爹神回覆時間Tue Dec  3 22:23:16 2013
就在剛剛幾秒鐘前
媽媽在唸爸爸每次帶我們去吃外面的時候都選那種沒什麼人的 然後每次都很難吃











於是爸爸默默的回了一句


























不然我怎麼會娶妳






哈哈哈哈哈哈哈哈我媽一開始還聽不懂XDDD


--
※ 發信站: 批踢踢實業坊(ptt.cc) 
◆ From: 1.171.188.91
推 david838:媽：不爽等一下就不要吃 12/03 22:29
→ dragon629:請問你爸住院了嗎？有沒有被打到內出血？ 12/05 04:44

