作者aa12211 (nich)站內StupidClown標題[無言] 我也太…蠢了！時間Wed Nov 27 16:29:04 2013
朋友揪禮拜日去他家打牌…
在聊天的時候
我可能沒睡飽
還是嘴殘∼
一直講錯話！
把魔幻力量說成魔飯力量
把明道說成王道
把後山埤說成後山杯
把丹丹漢堡說成丹丹號飽


我朋友就把這串串起來變成
「王道加入魔飯力量去後山杯開演唱會然後慶功去吃丹丹號飽」

那天整個糗到不行！

還踩到黏蟑螂的板子…
 http://miupix.cc/pm-UZXVQF



那天只有「糗」可以形容！








--
※ 發信站: 批踢踢實業坊(ptt.cc) 
◆ From: 120.96.98.73
→ jerry20717:標題是蠢 內文是糗 11/27 16:38
推 Frog501:總結：笨((無誤 11/27 20:27
推 encored789:你酒醒了沒~ 11/28 06:37

