作者b1993516 (b1993516)站內StupidClown標題[健忘] 騎協力車時間Tue Nov 19 21:09:30 2013
記得國中時約了一個欣賞的女生去東豐騎腳踏車，
中途經過流動廁所，
我們各自上完廁所後，
我先出來然後直接騎走了，
我完全忘記她的存在，
那件事情之後她在學校就不怎麼理我了，

有人也有這樣的經驗嗎？


--
※ 發信站: 批踢踢實業坊(ptt.cc) 
◆ From: 125.230.181.198
推 WSX:UCCU 11/19 21:14
推 meninblack59:討厭！不理你了啦 11/19 21:24
→ chenwww:因為她也忘了她有跟你來 11/19 21:33
推 mpeng:感同身受.... 11/19 21:55

