作者ziliyap (ZiliYap子立)看板StupidClown標題蠢欸！時間Wed Nov 20 10:10:21 2013
今天朋友跑接力，光榮完成使命下場後在旁邊鬧，結果扭到腳... 無言 = = 不是因為比賽 因為在玩弄到根本超蠢...

--
Sent from my Android

--
※ 發信站: 批踢踢實業坊(ptt.cc) 
◆ From: 120.125.11.230
→ kevinjeng:喔 11/20 11:16
→ melaofa:喔 11/20 12:35
→ ltou:喔 11/20 13:46
→ drpeter:喔 11/20 21:57
→ wind50930:喔 11/21 05:22

