作者tom02171234 (kobe0824)站內StupidClown標題[大哭] 酸痛噴霧時間Wed Dec  4 19:19:09 2013
手機排版見諒

今天學校剛比完接力賽

身為一整年沒快跑的老人家跑完自然是兩腳大腿酸痛

一回到家馬上拿出酸痛噴霧往大腿內側一噴

X!噴歪了
噴歪了
噴歪了

現在坐著下半身有一股透心的涼意QAQ


--
※ 發信站: 批踢踢實業坊(ptt.cc) 
◆ From: 114.25.4.20
推 abooma:1透心涼！雀吵檸茫ㄘㄚˊ 12/04 19:30
→ jk3892302:雞樂 12/04 20:09
→ uncleca:雞樂一下！ 12/04 20:25
推 waterblue85:怎麼好像今天才跟原PO跑接力賽……XD 12/05 03:22
→ tom02171234:樓上是誰0.0 12/05 06:30
推 qqqzzz123:沁涼一整夜 12/05 15:17

