作者verilla (黑色餅乾~歐瑞唷!)看板StupidClown標題[恍神] 電扶梯時間Sun Dec  8 12:43:02 2013
笨版首波，手機排版請多包涵。


*~*~*~*~*~*~*~*

就在剛剛，
我一如往常的到捷運站搭捷運，
一如往常的刷卡進捷運站，
一如往常的搭電扶梯下月台，

結果，
因為捷運剛到站，
我居然很順的直接往向上的的那方向的電扶梯衝下去，
衝下去瞬間我還覺得奇怪怎麼會倒退嚕！

那時候剛好有人要上來，
我不小心瞄到她們的嘴角微微上揚。
然後一堆眼睛都在看我，，，

好糗！

--
Sent from my Android

--
※ 發信站: 批踢踢實業坊(ptt.cc) 
◆ From: 27.240.41.102
推 mit0086:噗哧 比較想知道你後來的反應 12/08 13:19
→ verilla:後來我就頭低低的等到下班捷運來趕快上車 12/08 14:45

