作者van200417 (Mr. An)看板StupidClown標題[聽錯]是要搬什麼氣球拉?時間Mon Nov 25 00:20:22 2013

女友是一個很會腦補好女孩，
當她聽到一句話，就算沒聽清楚，
她也會用自己的思維詮釋她！
並覺得我要講的應該就是這樣...


今天女友突然問我:
「欸!你明天早上幾點要去學校 搬 氣 球 ?」

思緒斷了3秒鐘...

我想起前天告訴她:
「我決定禮拜一早上去學校 辦 棄 修 !!」


笨點在，她當時一點都不覺得去學校搬氣球有什麼不對勁!

到底要去學校搬什麼氣球拉...

--
※ 發信站: 批踢踢實業坊(ptt.cc) 
◆ From: 219.68.191.203
推 gytrry:好可愛！ 11/25 01:31

