作者cook10402 (cook6611)看板StupidClown標題[無言] 腳踏車阿伯時間Wed Dec  4 11:49:29 2013
昨天在上課的路程上，因為快遲到了所以騎的比較快一些。

(乖小孩不要學喔^_-)

騎車騎著前方有個騎腳踏車的阿伯，然後我就往他的右側超車。

！！

這時候我聽到腳踏車很大的煞車聲，我心想我是不是a到阿伯了//(ㄒoㄒ)//然後往後照鏡一看

那個阿伯……………

竟然再回頭看在等公車的妹…

我：…………(￣▽￣")

還好人沒事>"<|||以後還是慢慢騎好

手機排版請見諒>.<

--
Sent from my Android

--
※ 發信站: 批踢踢實業坊(ptt.cc) 
◆ From: 115.80.237.40
→ abooma:右側超車習慣不好... 12/04 11:55

