作者GLTY (小呆呆~)看板StupidClown標題[聽錯] 這是什麼神奇的東西??時間Tue Dec  3 21:21:49 2013
以下是真人真事ˊ_>ˋ

某天在逛夜市的時候,突然聽到夜市廣播

來賓XXX,你的朋友在猛虎要上白虎等你

心想...哇!!夜市逛這麼久還不知道這攤位在哪

好刺激喔!!




後來走一段路才想到...

原來廣播說的是蒙古藥膳排骨

抱歉是我想歪了...ㄒAㄒ

--
※ 發信站: 批踢踢實業坊(ptt.cc) 
◆ From: 61.224.201.18
推 imd337:一定是台南花園阿伯 12/03 21:44
推 Amontillako:有笑有推XDDDDDDDDDD 12/03 23:03

