作者love11011222 (璽玥)站內StupidClown標題[大哭] 好恐怖被自己的line嚇死時間Tue Dec 10 12:56:05 2013
 http://miupix.cc/pm-Z8AWFY

各位看到亮點了嘛？？？

我那時候睡醒看到這個畫面楞了五秒才發現不對勁！！！

我要不要把line拿去陽光底下淨化？求解


--
※ 發信站: 批踢踢實業坊(ptt.cc) 
◆ From: 1.34.215.123
→ jp39y3m6:這只是LINE的問題，而且下面也有一篇...... 12/10 13:09
推 e0109:成員5人，已讀6人！！！ 12/10 14:12

