作者FJCUlazycat (Henry)站內StupidClown標題Re: 聰明人都會看錯?!時間Mon Dec  2 12:25:33 2013
我也曾很認真的問我朋友

我:為什麼那個潮牌叫"超級自我"是

超級有主見的意思嗎

朋友:什麼超級自我?

我:就是super me 啊

朋友:那叫supreme.......-.-

※ 引述《z1456321 (蠟炬成灰淚始乾)》之銘言：
: 強者我同學
: 在上廁所時看到一排英文字母
: ABout
: 心想A  B  out ??  什麼東西阿
: 靠腰原來是about啦
: 手機排版不好請見諒

--
※ 發信站: 批踢踢實業坊(ptt.cc) 
◆ From: 61.230.65.224

