作者superpuppy (長興街梁朝偉)看板StupidClown標題Re: [無言] 哥，為什麼你要一直開關燈?時間Fri Nov 22 01:45:35 2013
結果原PO那篇被強者我同學轉到FB



在經過大家一陣嘲笑後



強者我另外一個同學默默的表示.............




















"棍!我對著網頁版開燈了......"

--
※ 發信站: 批踢踢實業坊(ptt.cc)
◆ From: 140.112.249.225
※ 編輯: superpuppy      來自: 140.112.249.225      (11/22 01:46)
噓 olorin1994:喔。 11/22 14:54
推 BEEHONEY:樓上有事？ 11/26 16:58

