作者RadeonGG (ChrisH)看板StupidClown標題[恍神] 這個...很燙嗎?時間Sat Nov 23 22:49:35 2013
來自爆一下笨點

原PO我大學的時候和同學總共四人合租一層公寓

在某天閒來無事的晚餐時間過後 兩個人抽著菸喝著啤酒
(好孩子不要學喔)

我拿著菸 看著他看得入神 喔 我是指我手上的菸

我同學好奇的問說 "你在看啥?"

我回答道 "這個...很燙嗎?"

我同學喝了一口啤酒後說 "聽說燃燒的菸中心有600度還是幾度的樣子哦
實際數字我忘了 總之就是比想像中的還高"

我驚訝了一下 "幹 真的假的啊? 看起來沒這麼燙啊"







然後我就捏了下去 彷彿聽到肉片剛下煎鍋的聲音 即使並沒有




一連串的髒話就不說了 媽的怎麼這麼燙啊?? 害我整整一個禮拜沒辦法點左鍵...

--
※ 發信站: 批踢踢實業坊(ptt.cc) 
◆ From: 114.47.57.117
→ s87269x:原po是M 11/23 22:52
推 xiondd:蠟燭(遞) 11/24 06:27

