作者andyjen ()看板StupidClown標題Re: [恍神] 最近的歌真奇怪時間Sat Nov 30 18:19:59 2013
我也聽到一首
一直
「玩機巴∼玩機巴∼我們都玩機巴　你就玩吧∼我們都玩機巴∼」


現在的歌一定都要這麼Ｈｉｇｈ嗎？


※ 引述《moonton (X)》之銘言：
: 辦公室裡有開廣播，固定收聽的那台常播流行音樂...
: 「我脫光了衣~服~~我還有~屁~股~~」
: ...歌詞這麼露骨，真的沒問題嗎？

--
※ 發信站: 批踢踢實業坊(ptt.cc) 
◆ From: 114.27.187.167

