作者j00118 (只有光能比我快)看板StupidClown標題[無言] 這一點都不小確幸啊時間Mon Nov 25 13:57:26 2013


阿魯我剛剛在午餐買粥的時候

也許老闆見我和氣誠懇英俊有為吧

送我三包油條回去加

我很感動

不是因為附贈的配料，而是人與人之間的善意暖心

原來文青口中的小確幸，原來是這麼回事！










回家，開心的把三包油條都放進粥，攪拌攪拌準備享用時

不消30秒.....

湯都乾了....


幹！這一點都不小確幸啊！


--
※ 發信站: 批踢踢實業坊(ptt.cc) 
◆ From: 1.34.54.181
推 ph4586:XD 不自覺的嘴角上揚了 11/25 18:18
→ abooma:XDD 老闆是故意的... 11/25 18:44
推 gtgtgtgt:老闆:等這天等很久啦!(握拳 11/25 21:01
→ catcygnus:嘴角上揚+1…XD 11/26 20:58

