作者snailpon (<U+306B><U+304F><U+304D><U+3085><U+3046>)看板StupidClown標題Re: [撞奶] 無法解釋的撞奶時間Sun Nov 24 19:15:00 2013
: 於是 我摸了她的頭

我以為原po的舉動不用解釋鄉民們應該都知道...

原因在此！！！

https://www.youtube.com/watch?v=VoHo9UTgBWc

--
※ 發信站: 批踢踢實業坊(ptt.cc)
◆ From: 114.42.184.239
※ 編輯: snailpon        來自: 114.42.184.239       (11/24 19:16)
推 popeyewowo:解釋等於掩飾，啊嘶 11/24 19:21

