作者fun10068 (飯糰)站內StupidClown標題[大哭] 美白精華液時間Wed Nov 20 23:05:25 2013
我朋友昨天晚上擦了美白精華液在左手,

想實驗看看是不是真的有效,

隔天晚上又看,

OM MY GOD!!!!!!!!!!!!

右手比左手白 =_=


--

趣味格言幽默小語:http://tinyurl.com/7atlqvz

--
※ 發信站: 批踢踢實業坊(ptt.cc) 
◆ From: 163.20.242.33
推 suzyn:有人跟我一樣跟上文一起看  看成了"辣妹愛精液"嗎?  (遮臉) 11/21 00:12
推 silentguy:五樓都擦在眼睛上 11/21 00:32
→ callTM:漂白水 11/21 01:48
→ wind6453:冒險蓋 11/21 07:50
推 shadowmelo:擦在眼睛上總比二樓擦在雞雞上好多惹 11/21 15:45
推 sanguokang:五樓逆轉勝 11/21 23:03

